﻿@startuml

interface IDamageable{
ApplyDamage(int _value)
}

IDamageable <.. Player
IDamageable <.. Enemy
IDamageable <.. Box

Bullet --> IDamageable
Lava --> IDamageable
@enduml

@startuml

class Bullet{
colliderEnter
DoDamageEnemy()
}

class Lava{
colliderEnter
DoDamagePlayer()
DoDamageEnemy()
DoDamageBox()
}
@enduml